module gitlab.com/remotejob/chatclientmsgtrigger

go 1.13

require (
	cloud.google.com/go/firestore v1.1.0 // indirect
	cloud.google.com/go/storage v1.4.0 // indirect
	firebase.google.com/go v3.11.0+incompatible
	golang.org/x/oauth2 v0.0.0-20191202225959-858c2ad4c8b6 // indirect
	google.golang.org/api v0.15.0 // indirect
	google.golang.org/appengine v1.6.5 // indirect
)
